<?xml version="1.0" encoding="UTF-8" standalone="no"?>
<svg width="92px" height="106px" viewBox="0 0 92 106" version="1.1" xmlns="http://www.w3.org/2000/svg" xmlns:xlink="http://www.w3.org/1999/xlink">
    <!-- Generator: Sketch 50.2 (55047) - http://www.bohemiancoding.com/sketch -->
    <title>Group</title>
    <desc>Created with Sketch.</desc>
    <defs></defs>
    <g id="Page-2_HomeAutomation" stroke="none" stroke-width="1" fill="none" fill-rule="evenodd">
        <g id="Partner-With-Us" transform="translate(-754.000000, -834.000000)">
            <g id="Group" transform="translate(755.000000, 835.000000)">
                <path d="M90.3601689,25.0711731 C90.3601689,25.0711731 72.8120439,65.7344423 24.0476209,93.9138173 C24.0476209,93.9138173 34.5102651,102.518769 44.4650728,104.205837 C44.4650728,104.205837 95.2537747,96.9497308 90.3601689,25.0711731" id="Fill-1" fill="#B5E0F2"></path>
                <path d="M44.9924959,103.543125 C63.9692266,97.9811538 79.3981689,84.8945192 86.6209574,66.3236538 C91.1975439,54.5586058 89.7871113,40.9651442 89.7618709,28.5852404 C89.745717,20.671875 89.8163901,12.7595192 89.7729766,4.84716346 C89.7729766,4.84716346 73.7433132,0 44.9924959,0 C16.8676401,0 0.214034333,4.84716346 0.214034333,4.84716346 C0.191822795,8.728125 0.197880487,12.6080769 0.207976641,16.4880288 C0.217063179,20.5214423 0.23220741,24.5528365 0.224130487,28.5852404 C0.198890102,40.9651442 -1.21053297,54.5586058 3.36504395,66.3236538 C10.588842,84.8945192 26.0157651,97.9811538 44.9924959,103.543125 Z" id="Stroke-3" stroke="#132C4F" stroke-width="2" stroke-linecap="round"></path>
                <path d="M78.4183372,2.46426923 C78.4183372,2.46426923 53.0174238,58.965375 9.4060776,76.356" id="Stroke-5" stroke="#132C4F" stroke-width="2" stroke-linecap="round"></path>
                <path d="M55.7660007,0.832427885 C46.3048949,17.1074279 27.5563372,44.2317548 1.34066414,57.9685817" id="Stroke-7" stroke="#132C4F" stroke-width="2" stroke-linecap="round"></path>
                <path d="M89.7616689,25.8441346 C89.7616689,25.8441346 76.4882555,63.2857212 24.0771016,93.2773558" id="Stroke-9" stroke="#132C4F" stroke-width="2" stroke-linecap="round"></path>
            </g>
        </g>
    </g>
</svg>