<?xml version="1.0" encoding="UTF-8" standalone="no"?>
<svg width="487px" height="325px" viewBox="0 0 487 325" version="1.1" xmlns="http://www.w3.org/2000/svg" xmlns:xlink="http://www.w3.org/1999/xlink">
    <!-- Generator: Sketch 50.2 (55047) - http://www.bohemiancoding.com/sketch -->
    <title>Group 36</title>
    <desc>Created with Sketch.</desc>
    <defs>
        <polygon id="path-1" points="0 0.995 486.536 0.995 486.536 326 0 326"></polygon>
        <polygon id="path-3" points="0 326.005 486.536 326.005 486.536 1 0 1"></polygon>
    </defs>
    <g id="Page-2_HomeAutomation_final" stroke="none" stroke-width="1" fill="none" fill-rule="evenodd">
        <g id="Services_HomeAutomation-Copy" transform="translate(-557.000000, -237.000000)">
            <g id="Group-36" transform="translate(557.000000, 236.000000)">
                <g id="Group-3" transform="translate(0.000000, 0.005000)">
                    <mask id="mask-2" fill="white">
                        <use xlink:href="#path-1"></use>
                    </mask>
                    <g id="Clip-2"></g>
                    <path d="M125.4747,320.4896 C115.1697,318.8356 -8.6333,303.9336 0.4787,194.0316 C9.5917,84.1296 21.0317,51.0776 69.1647,38.9856 C117.2977,26.8936 234.3017,-30.3244 326.1157,24.0816 C417.9287,78.4866 517.0017,127.2826 477.6867,214.1516 C438.3707,301.0216 431.9337,329.9996 329.3567,325.5656 C226.7797,321.1326 174.4717,328.3566 125.4747,320.4896" id="Fill-1" fill="#EEFBFF" mask="url(#mask-2)"></path>
                </g>
                <path d="M410.422,276.351 L410.422,74.869 C410.422,71.221 407.439,68.237 403.791,68.237 L71.995,68.237 C68.348,68.237 65.363,71.221 65.363,74.869 L65.363,276.351 L410.422,276.351 Z" id="Fill-4" fill="#FFFFFF"></path>
                <path d="M66.1691,275.5444 L409.6161,275.5444 L409.6161,74.8684 C409.6161,71.6564 407.0031,69.0434 403.7901,69.0434 L71.9951,69.0434 C68.7821,69.0434 66.1691,71.6564 66.1691,74.8684 L66.1691,275.5444 Z M410.4231,277.1564 L65.3631,277.1564 C64.9181,277.1564 64.5571,276.7954 64.5571,276.3514 L64.5571,74.8684 C64.5571,70.7674 67.8941,67.4314 71.9951,67.4314 L403.7901,67.4314 C407.8921,67.4314 411.2291,70.7674 411.2291,74.8684 L411.2291,276.3514 C411.2291,276.7954 410.8671,277.1564 410.4231,277.1564 Z" id="Fill-6" fill="#122C4F"></path>
                <path d="M427.7462,297.5883 L48.0142,297.5883 C37.6212,297.5883 29.1662,289.1323 29.1662,278.7393 L29.1662,277.6093 C29.1662,276.9983 29.6602,276.5033 30.2712,276.5033 L445.5152,276.5033 C446.1252,276.5033 446.6192,276.9983 446.6192,277.6093 L446.6192,278.7153 C446.6192,289.1213 438.1532,297.5883 427.7462,297.5883" id="Fill-8" fill="#FFFFFF"></path>
                <path d="M431.9816,301.8227 L52.2496,301.8227 C41.8556,301.8227 33.4006,293.3667 33.4006,282.9737 L33.4006,281.8437 C33.4006,281.2327 33.8956,280.7377 34.5056,280.7377 L449.7496,280.7377 C450.3596,280.7377 450.8546,281.2327 450.8546,281.8437 L450.8546,282.9497 C450.8546,293.3557 442.3876,301.8227 431.9816,301.8227" id="Fill-10" fill="#B5E0F2"></path>
                <path d="M30.2716,277.309 C30.1066,277.309 29.9716,277.444 29.9716,277.608 L29.9716,278.74 C29.9716,288.688 38.0656,296.782 48.0136,296.782 L427.7466,296.782 C437.7086,296.782 445.8136,288.677 445.8136,278.714 L445.8136,277.608 C445.8136,277.444 445.6796,277.309 445.5146,277.309 L30.2716,277.309 Z M427.7466,298.394 L48.0136,298.394 C37.1766,298.394 28.3596,289.577 28.3596,278.74 L28.3596,277.608 C28.3596,276.554 29.2166,275.697 30.2716,275.697 L445.5146,275.697 C446.5686,275.697 447.4256,276.554 447.4256,277.608 L447.4256,278.714 C447.4256,289.566 438.5976,298.394 427.7466,298.394 Z" id="Fill-12" fill="#122C4F"></path>
                <path d="M189.9113,276.5092 C190.4393,279.6932 193.2133,282.1272 196.5453,282.1272 L279.2403,282.1272 C282.5723,282.1272 285.3463,279.6932 285.8743,276.5092 L189.9113,276.5092 Z" id="Fill-14" fill="#FFFFFF"></path>
                <path d="M190.9406,277.3149 C191.7426,279.6849 193.9656,281.3219 196.5446,281.3219 L279.2406,281.3219 C281.8206,281.3219 284.0446,279.6849 284.8446,277.3149 L190.9406,277.3149 Z M279.2406,282.9339 L196.5446,282.9339 C192.8456,282.9339 189.7216,280.2879 189.1166,276.6409 C189.0776,276.4079 189.1426,276.1689 189.2956,275.9879 C189.4496,275.8069 189.6736,275.7029 189.9116,275.7029 L285.8746,275.7029 C286.1116,275.7029 286.3356,275.8069 286.4896,275.9879 C286.6426,276.1689 286.7086,276.4079 286.6696,276.6409 C286.0646,280.2879 282.9396,282.9339 279.2406,282.9339 Z" id="Fill-16" fill="#122C4F"></path>
                <polygon id="Fill-18" fill="#F6FAFD" points="84.3175 255.0005 84.3175 266.8055 122.4035 266.8055 391.4675 141.5845 391.4675 112.0555"></polygon>
                <polygon id="Fill-20" fill="#F6FAFD" points="84.3175 84.2485 84.3175 158.7895 244.4855 84.2485"></polygon>
                <polygon id="Fill-22" fill="#F6FAFD" points="391.4679 84.2485 336.7259 84.2485 84.3179 201.7175 84.3179 233.5365 391.4679 90.5915"></polygon>
                <polygon id="Fill-24" fill="#F6FAFD" points="391.4679 266.8051 391.4679 177.7681 200.1519 266.8051"></polygon>
                <mask id="mask-4" fill="white">
                    <use xlink:href="#path-3"></use>
                </mask>
                <g id="Clip-27"></g>
                <path d="M85.124,265.999 L390.662,265.999 L390.662,85.054 L85.124,85.054 L85.124,265.999 Z M391.468,267.612 L84.318,267.612 C83.872,267.612 83.512,267.25 83.512,266.805 L83.512,84.248 C83.512,83.803 83.872,83.442 84.318,83.442 L391.468,83.442 C391.913,83.442 392.274,83.803 392.274,84.248 L392.274,266.805 C392.274,267.25 391.913,267.612 391.468,267.612 Z" id="Fill-26" fill="#122C4F" mask="url(#mask-4)"></path>
                <path d="M181.6417,127.0278 L181.6457,249.7708 C181.6457,252.7578 184.0757,255.1798 187.0727,255.1798 L297.6627,255.1768 C300.6607,255.1768 303.0897,252.7558 303.0897,249.7668 L303.0897,230.6368 L302.9977,220.0938 L302.9947,103.5318 C302.9947,100.5438 300.5647,98.1218 297.5677,98.1218 L210.5427,98.1238 L181.6427,127.0018 L181.6417,127.0278 Z" id="Fill-28" fill="#FFFFFF" mask="url(#mask-4)"></path>
                <path d="M181.6671,127.0268 L181.6421,127.0278 L181.6681,127.0278 L181.6671,127.0268 Z M182.4481,127.3368 L182.4511,249.7698 C182.4511,252.3088 184.5241,254.3748 187.0721,254.3748 L297.6631,254.3708 C300.2111,254.3708 302.2841,252.3058 302.2841,249.7668 L302.2831,230.6368 L302.1911,220.1008 L302.1881,103.5318 C302.1881,100.9928 300.1151,98.9268 297.5671,98.9268 L210.8771,98.9298 L182.4481,127.3368 Z M187.0721,255.9868 C183.6361,255.9868 180.8391,253.1978 180.8391,249.7698 L180.8361,127.0278 L180.8361,127.0148 L180.8361,126.9898 C180.8391,126.7798 180.9241,126.5798 181.0721,126.4318 L209.9741,97.5538 C210.1251,97.4028 210.3291,97.3178 210.5431,97.3178 L297.5671,97.3148 C301.0041,97.3148 303.8011,100.1038 303.8011,103.5318 L303.8041,220.0938 L303.8961,230.6308 L303.8961,249.7668 C303.8961,253.1948 301.1001,255.9828 297.6631,255.9828 L187.0721,255.9868 Z" id="Fill-29" fill="#122C4F" mask="url(#mask-4)"></path>
                <path d="M209.797,100.0698 L183.588,126.2808 L204.906,126.2798 C206.213,126.2798 207.442,125.7708 208.364,124.8468 C209.289,123.9238 209.797,122.6948 209.797,121.3878 L209.797,100.0698 Z M181.642,127.8928 C181.316,127.8928 181.022,127.6968 180.897,127.3948 C180.773,127.0938 180.841,126.7478 181.071,126.5168 L210.033,97.5538 C210.263,97.3228 210.61,97.2548 210.911,97.3798 C211.213,97.5048 211.409,97.7978 211.409,98.1238 L211.409,121.3878 C211.41,123.1258 210.734,124.7588 209.505,125.9868 C208.276,127.2158 206.644,127.8918 204.906,127.8918 L181.642,127.8928 Z" id="Fill-30" fill="#122C4F" mask="url(#mask-4)"></path>
                <path d="M266.6368,185.3979 L215.6738,185.3979 C215.0058,185.3979 214.4648,184.8569 214.4648,184.1889 C214.4648,183.5209 215.0058,182.9799 215.6738,182.9799 L266.6368,182.9799 C267.3048,182.9799 267.8468,183.5209 267.8468,184.1889 C267.8468,184.8569 267.3048,185.3979 266.6368,185.3979" id="Fill-31" fill="#B5E0F2" mask="url(#mask-4)"></path>
                <path d="M289.1173,218.7544 L193.1933,218.7544 C192.7483,218.7544 192.3883,218.3934 192.3883,217.9474 C192.3883,217.5024 192.7483,217.1424 193.1933,217.1424 L289.1173,217.1424 C289.5623,217.1424 289.9243,217.5024 289.9243,217.9474 C289.9243,218.3934 289.5623,218.7544 289.1173,218.7544" id="Fill-32" fill="#122C4F" mask="url(#mask-4)"></path>
                <path d="M289.1173,205.2505 L193.1933,205.2505 C192.7483,205.2505 192.3883,204.8895 192.3883,204.4445 C192.3883,203.9995 192.7483,203.6385 193.1933,203.6385 L289.1173,203.6385 C289.5623,203.6385 289.9243,203.9995 289.9243,204.4445 C289.9243,204.8895 289.5623,205.2505 289.1173,205.2505" id="Fill-33" fill="#122C4F" mask="url(#mask-4)"></path>
                <path d="M241.5158,232.2573 L193.1938,232.2573 C192.7478,232.2573 192.3878,231.8973 192.3878,231.4513 C192.3878,231.0063 192.7478,230.6453 193.1938,230.6453 L241.5158,230.6453 C241.9608,230.6453 242.3228,231.0063 242.3228,231.4513 C242.3228,231.8973 241.9608,232.2573 241.5158,232.2573" id="Fill-34" fill="#122C4F" mask="url(#mask-4)"></path>
                <path d="M223.4484,157.1655 C223.2444,157.1655 223.0394,157.0885 222.8824,156.9335 C222.5654,156.6205 222.5614,156.1095 222.8754,155.7935 C223.1744,155.4895 230.3374,148.3775 242.4204,148.3775 C254.4864,148.3775 261.5344,154.8805 261.8294,155.1565 C262.1534,155.4625 262.1694,155.9725 261.8634,156.2965 C261.5574,156.6215 261.0484,156.6365 260.7234,156.3315 C260.6574,156.2695 253.8194,149.9895 242.4204,149.9895 C231.0044,149.9895 224.0904,156.8565 224.0214,156.9265 C223.8644,157.0855 223.6564,157.1655 223.4484,157.1655" id="Fill-35" fill="#122C4F" mask="url(#mask-4)"></path>
                <path d="M220.4972,140.727 C220.4972,139.192 219.2532,137.949 217.7192,137.949 C216.1852,137.949 214.9402,139.192 214.9402,140.727 C214.9402,142.261 216.1852,143.505 217.7192,143.505 C219.2532,143.505 220.4972,142.261 220.4972,140.727" id="Fill-36" fill="#122C4F" mask="url(#mask-4)"></path>
                <path d="M269.0343,140.727 C269.0343,139.192 267.7903,137.949 266.2563,137.949 C264.7223,137.949 263.4773,139.192 263.4773,140.727 C263.4773,142.261 264.7223,143.505 266.2563,143.505 C267.7903,143.505 269.0343,142.261 269.0343,140.727" id="Fill-37" fill="#122C4F" mask="url(#mask-4)"></path>
                <path d="M223.2277,79.52 L165.5287,86.409 C156.0697,87.538 147.4857,80.785 146.3567,71.326 L144.6267,56.845 C143.4987,47.386 150.2507,38.802 159.7097,37.673 L217.4097,30.785 C226.8687,29.655 235.4527,36.408 236.5817,45.868 L238.3097,60.348 C239.4397,69.807 232.6867,78.391 223.2277,79.52" id="Fill-38" fill="#FFFFFF" mask="url(#mask-4)"></path>
                <path d="M226.3146,82.6069 L168.6156,89.4959 C159.1566,90.6249 150.5726,83.8729 149.4436,74.4129 L147.7146,59.9319 C146.5856,50.4729 153.3376,41.8889 162.7966,40.7599 L220.4966,33.8719 C229.9556,32.7429 238.5396,39.4949 239.6686,48.9549 L241.3976,63.4349 C242.5266,72.8939 235.7736,81.4779 226.3146,82.6069" id="Fill-39" fill="#FF9C80" mask="url(#mask-4)"></path>
                <path d="M233.4513,78.2993 L233.4553,78.2993 L233.4513,78.2993 Z M228.4623,30.3203 C228.2203,30.3203 227.9743,30.3353 227.7283,30.3643 L149.5823,39.6943 C146.2173,40.0963 143.8053,43.1603 144.2073,46.5263 L148.3773,81.4543 C148.5723,83.0843 149.3893,84.5413 150.6803,85.5563 C151.9703,86.5713 153.5793,87.0223 155.2093,86.8283 L233.3553,77.4993 C236.7213,77.0973 239.1323,74.0323 238.7303,70.6673 L234.5603,35.7383 C234.1873,32.6193 231.5273,30.3203 228.4623,30.3203 Z M154.4653,88.4863 C152.7343,88.4863 151.0643,87.9103 149.6833,86.8233 C148.0553,85.5423 147.0213,83.7033 146.7763,81.6453 L142.6063,46.7173 C142.0993,42.4693 145.1423,38.6003 149.3903,38.0933 L227.5373,28.7633 C231.7853,28.2563 235.6543,31.3003 236.1613,35.5473 L240.3313,70.4763 C240.8383,74.7243 237.7953,78.5933 233.5473,79.1003 L155.4003,88.4293 C155.0873,88.4673 154.7743,88.4863 154.4653,88.4863 Z" id="Fill-40" fill="#122C4F" mask="url(#mask-4)"></path>
                <path d="M159.7052,65.1889 L168.6742,64.1189 L167.2262,52.0009 L159.7052,65.1889 Z M169.6942,72.6689 L169.2312,68.7909 L158.7622,70.0399 C157.4402,70.1979 156.4142,70.0169 155.6832,69.4979 C154.9502,68.9789 154.5232,68.2059 154.4002,67.1759 C154.3692,66.9129 154.3862,66.6379 154.4502,66.3559 C154.5162,66.0729 154.6272,65.7709 154.7872,65.4489 C154.9452,65.1269 155.1122,64.8139 155.2882,64.5099 C155.4632,64.2079 155.6802,63.8359 155.9372,63.3969 L165.2262,47.2909 C165.8332,46.2309 166.3432,45.4539 166.7572,44.9599 C167.1702,44.4659 167.7032,44.1809 168.3572,44.1029 C170.4712,43.8509 171.6722,44.9339 171.9602,47.3529 L173.8882,63.4969 L174.7842,63.3889 C175.8542,63.2609 176.7302,63.3049 177.4122,63.5199 C178.0942,63.7339 178.4932,64.3349 178.6112,65.3229 C178.7072,66.1279 178.5142,66.7489 178.0292,67.1789 C177.5442,67.6109 176.7732,67.8899 175.7182,68.0159 L174.4452,68.1679 L174.9082,72.0459 C175.0362,73.1179 174.8942,73.9419 174.4842,74.5189 C174.0732,75.0969 173.4722,75.4339 172.6802,75.5279 C171.9002,75.6219 171.2402,75.4279 170.6962,74.9509 C170.1522,74.4729 169.8182,73.7119 169.6942,72.6689 Z" id="Fill-41" fill="#FFFFFF" mask="url(#mask-4)"></path>
                <path d="M196.2423,56.5542 C195.9383,54.0092 195.5373,51.9462 195.0383,50.3632 C194.5393,48.7802 193.8783,47.6172 193.0563,46.8762 C192.2343,46.1352 191.1843,45.8412 189.9053,45.9932 C188.0693,46.2132 186.9043,47.2892 186.4093,49.2252 C185.9143,51.1582 185.8963,54.0522 186.3563,57.9042 C186.6683,60.5182 187.0763,62.6402 187.5823,64.2732 C188.0863,65.9052 188.7513,67.1052 189.5763,67.8732 C190.4013,68.6422 191.4323,68.9522 192.6713,68.8052 C193.9493,68.6532 194.8973,68.0882 195.5143,67.1122 C196.1313,66.1362 196.4873,64.8032 196.5813,63.1142 C196.6763,61.4242 196.5623,59.2382 196.2423,56.5542 M202.0073,56.2882 C202.2793,58.5702 202.3743,60.5462 202.2923,62.2202 C202.2093,63.8942 201.8733,65.4432 201.2813,66.8672 C200.5313,68.6212 199.4593,70.0332 198.0633,71.1022 C196.6683,72.1702 195.0533,72.8152 193.2183,73.0332 C191.1043,73.2862 189.1383,72.9142 187.3203,71.9182 C185.5023,70.9232 184.0433,69.4192 182.9423,67.4072 C182.3743,66.3052 181.9043,65.0672 181.5373,63.6932 C181.1683,62.3202 180.8873,60.8202 180.6923,59.1932 C180.4423,57.0932 180.3273,55.1902 180.3483,53.4812 C180.3703,51.7722 180.5463,50.2832 180.8743,49.0182 C181.4553,46.9172 182.4663,45.2502 183.9043,44.0132 C185.3433,42.7772 187.1473,42.0292 189.3163,41.7702 C190.7483,41.5992 192.0763,41.6772 193.3003,42.0032 C194.5233,42.3292 195.6303,42.8882 196.6203,43.6802 C197.6093,44.4712 198.4893,45.4912 199.2593,46.7392 C200.5893,48.9072 201.5063,52.0902 202.0073,56.2882" id="Fill-42" fill="#FFFFFF" mask="url(#mask-4)"></path>
                <path d="M210.4689,59.1294 L219.4369,58.0584 L217.9899,45.9414 L210.4689,59.1294 Z M220.4579,66.6084 L219.9939,62.7304 L209.5249,63.9804 C208.2029,64.1374 207.1779,63.9574 206.4459,63.4374 C205.7139,62.9184 205.2859,62.1454 205.1629,61.1154 C205.1319,60.8524 205.1499,60.5784 205.2139,60.2954 C205.2789,60.0134 205.3909,59.7104 205.5499,59.3884 C205.7089,59.0664 205.8759,58.7534 206.0509,58.4504 C206.2269,58.1484 206.4439,57.7764 206.7009,57.3364 L215.9899,41.2304 C216.5959,40.1704 217.1069,39.3944 217.5199,38.9004 C217.9339,38.4064 218.4669,38.1204 219.1199,38.0424 C221.2339,37.7904 222.4349,38.8744 222.7239,41.2934 L224.6509,57.4364 L225.5479,57.3284 C226.6179,57.2014 227.4939,57.2444 228.1759,57.4594 C228.8569,57.6744 229.2559,58.2754 229.3739,59.2624 C229.4709,60.0674 229.2769,60.6884 228.7919,61.1184 C228.3079,61.5514 227.5369,61.8294 226.4809,61.9554 L225.2089,62.1084 L225.6719,65.9864 C225.7999,67.0574 225.6579,67.8814 225.2469,68.4594 C224.8369,69.0374 224.2359,69.3734 223.4429,69.4684 C222.6639,69.5614 222.0029,69.3684 221.4599,68.8914 C220.9159,68.4124 220.5819,67.6514 220.4579,66.6084 Z" id="Fill-43" fill="#FFFFFF" mask="url(#mask-4)"></path>
                <path d="M325.8966,178.1723 C325.8666,178.1723 325.8356,178.1703 325.8046,178.1663 C306.3076,175.9643 302.2206,161.3123 302.2236,158.5193 C302.2246,158.0733 302.5856,157.7133 303.0306,157.7133 L303.0316,157.7133 C303.4766,157.7143 303.8366,158.0753 303.8356,158.5213 C303.8356,158.6763 305.8206,174.2863 325.9866,176.5653 C326.4286,176.6143 326.7466,177.0143 326.6966,177.4563 C326.6506,177.8673 326.3016,178.1723 325.8966,178.1723" id="Fill-44" fill="#122C4F" mask="url(#mask-4)"></path>
                <path d="M181.6427,160.0151 L181.6147,160.0151 C180.8327,159.9891 176.8197,159.3271 171.4507,156.5691 C166.7857,154.1721 159.9887,149.5541 154.1067,141.1601 C153.8507,140.7941 153.9397,140.2911 154.3037,140.0361 C154.6677,139.7811 155.1707,139.8691 155.4267,140.2341 C166.9067,156.6161 181.5307,158.3991 181.6687,158.4041 C182.1147,158.4181 182.4617,158.7911 182.4477,159.2371 C182.4327,159.6721 182.0747,160.0151 181.6427,160.0151" id="Fill-45" fill="#122C4F" mask="url(#mask-4)"></path>
                <path d="M156.4894,159.0454 C156.0864,159.0454 155.7374,158.7434 155.6894,158.3324 L146.0674,76.0694 C146.0154,75.6284 146.3324,75.2284 146.7744,75.1764 C147.2184,75.1244 147.6174,75.4414 147.6694,75.8834 L157.2914,158.1464 C157.3434,158.5874 157.0264,158.9874 156.5844,159.0394 C156.5514,159.0434 156.5204,159.0454 156.4894,159.0454" id="Fill-46" fill="#122C4F" mask="url(#mask-4)"></path>
                <path d="M237.3234,268.9282 C236.8794,268.9282 236.5174,268.5672 236.5174,268.1222 L236.5174,255.1812 C236.5174,254.7362 236.8794,254.3742 237.3234,254.3742 C237.7684,254.3742 238.1304,254.7362 238.1304,255.1812 L238.1304,268.1222 C238.1304,268.5672 237.7684,268.9282 237.3234,268.9282" id="Fill-47" fill="#122C4F" mask="url(#mask-4)"></path>
                <path d="M247.4083,268.9282 C246.9633,268.9282 246.6013,268.5672 246.6013,268.1222 L246.6013,255.1812 C246.6013,254.7362 246.9633,254.3742 247.4083,254.3742 C247.8533,254.3742 248.2143,254.7362 248.2143,255.1812 L248.2143,268.1222 C248.2143,268.5672 247.8533,268.9282 247.4083,268.9282" id="Fill-48" fill="#122C4F" mask="url(#mask-4)"></path>
            </g>
        </g>
    </g>
</svg>